Algorithm,fanout,ttl,bw,mean_delay
Pulp,2,2,6.9,13.3
Pulp,2,3,7.3,4.1
Pulp,2,4,5.2,2.2
Pulp,2,5,4.4,2
Pulp,2,6,4,2
Pulp,3,2,7.6,5
Pulp,3,3,4.7,2
Pulp,3,4,4,1.9
Pulp,3,5,3,1.5
Pulp,3,6,2.3,1
Pulp,4,2,6.1,2.6
Pulp,4,3,4.2,1.8
Pulp,4,4,3,1.4
Pulp,4,5,2.2,0.8
Pulp,4,6,2.4,0.6
Pulp,5,2,5.1,2
Pulp,5,3,3.9,1.8
Pulp,5,4,2.3,0.9
Pulp,5,5,2.3,0.6
Pulp,5,6,3.1,0.5
Pulp,6,2,4.6,1.8
Pulp,6,3,3.3,1.5
Pulp,6,4,2.1,0.7
Pulp,6,5,2.9,0.4
Pulp,6,6,4,0.4
CHEPIN,2,2,2.3,2.2
CHEPIN,2,3,2.1,1.9
CHEPIN,2,4,2,1.8
CHEPIN,2,5,1.9,1.8
CHEPIN,2,6,1.8,1.8
CHEPIN,3,2,2.2,1.9
CHEPIN,3,3,1.9,1.7
CHEPIN,3,4,1.8,1.6
CHEPIN,3,5,1.7,1.3
CHEPIN,3,6,1.7,0.9
CHEPIN,4,2,2.1,1.7
CHEPIN,4,3,1.8,1.6
CHEPIN,4,4,1.7,1.2
CHEPIN,4,5,1.8,0.7
CHEPIN,4,6,2.3,0.5
CHEPIN,5,2,2,1.7
CHEPIN,5,3,1.7,1.4
CHEPIN,5,4,1.7,0.8
CHEPIN,5,5,2.3,0.5
CHEPIN,5,6,3.1,0.4
CHEPIN,6,2,1.9,1.6
CHEPIN,6,3,1.7,1.2
CHEPIN,6,4,1.8,0.6
CHEPIN,6,5,2.8,0.4
CHEPIN,6,6,3.8,0.3
