<?xml version="1.0" encoding="UTF-8" standalone="no"?>
<!-- Created with Inkscape (http://www.inkscape.org/) -->
<svg xmlns:dc="http://purl.org/dc/elements/1.1/" xmlns:cc="http://web.resource.org/cc/" xmlns:rdf="http://www.w3.org/1999/02/22-rdf-syntax-ns#" xmlns:svg="http://www.w3.org/2000/svg" xmlns="http://www.w3.org/2000/svg" xmlns:xlink="http://www.w3.org/1999/xlink" xmlns:sodipodi="http://sodipodi.sourceforge.net/DTD/sodipodi-0.dtd" xmlns:inkscape="http://www.inkscape.org/namespaces/inkscape" width="48" height="48" id="svg4908" sodipodi:version="0.32" inkscape:version="0.45" sodipodi:docbase="/home/dobey/Projects/gnome-icon-theme/scalable/actions" sodipodi:docname="process-stop.svg" inkscape:output_extension="org.inkscape.output.svg.inkscape" inkscape:export-filename="/home/andreas/project/gnome-icon-theme/scalable/actions/process-stop.png" inkscape:export-xdpi="90" inkscape:export-ydpi="90" version="1.0">
  <defs id="defs4910">
    <radialGradient gradientTransform="matrix(1.349881,0,0,1.349881,-3.498814,-1.810859)" gradientUnits="userSpaceOnUse" r="9.7183542" fy="4.9892726" fx="9.6893959" cy="4.9892726" cx="9.6893959" id="radialGradient5177" xlink:href="#linearGradient5171" inkscape:collect="always"/>
    <radialGradient gradientTransform="matrix(2.417917,0,0,2.417917,-14.17917,-4.903184)" gradientUnits="userSpaceOnUse" r="9.7785711" fy="3.458019" fx="10" cy="3.458019" cx="10" id="radialGradient5157" xlink:href="#linearGradient5151" inkscape:collect="always"/>
    <radialGradient gradientUnits="userSpaceOnUse" gradientTransform="matrix(0.928125,0,0,0.3143011,0.7718789,12.358015)" r="9.0598059" fy="18.022524" fx="10.739184" cy="18.022524" cx="10.739184" id="radialGradient5145" xlink:href="#linearGradient5139" inkscape:collect="always"/>
    <linearGradient id="linearGradient5139" inkscape:collect="always">
      <stop id="stop5141" offset="0" style="stop-color:black;stop-opacity:1;"/>
      <stop id="stop5143" offset="1" style="stop-color:black;stop-opacity:0;"/>
    </linearGradient>
    <linearGradient id="linearGradient5151" inkscape:collect="always">
      <stop id="stop5153" offset="0" style="stop-color:white;stop-opacity:1;"/>
      <stop id="stop5155" offset="1" style="stop-color:white;stop-opacity:0;"/>
    </linearGradient>
    <linearGradient id="linearGradient5171">
      <stop id="stop5173" offset="0" style="stop-color:#fe3a00;stop-opacity:1"/>
      <stop id="stop5175" offset="1" style="stop-color:#c00;stop-opacity:1;"/>
    </linearGradient>
  </defs>
  <sodipodi:namedview id="base" pagecolor="#ffffff" bordercolor="#666666" borderopacity="1.0" inkscape:pageopacity="0.0" inkscape:pageshadow="2" inkscape:zoom="5.6568542" inkscape:cx="35.649059" inkscape:cy="26.052211" inkscape:current-layer="g7001" showgrid="false" inkscape:grid-bbox="true" inkscape:document-units="px" showguides="true" inkscape:guide-bbox="true" inkscape:window-width="1674" inkscape:window-height="970" inkscape:window-x="0" inkscape:window-y="25" width="48px" height="48px"/>
  <metadata id="metadata4913">
    <rdf:RDF>
      <cc:Work rdf:about="">
        <dc:format>image/svg+xml</dc:format>
        <dc:type rdf:resource="http://purl.org/dc/dcmitype/StillImage"/>
        <dc:title>Stop Process</dc:title>
        <dc:date>December 2006</dc:date>
        <dc:creator>
          <cc:Agent>
            <dc:title>Jakub Steiner</dc:title>
          </cc:Agent>
        </dc:creator>
        <dc:contributor>
          <cc:Agent>
            <dc:title>Andreas Nilsson</dc:title>
          </cc:Agent>
        </dc:contributor>
        <cc:license rdf:resource="http://creativecommons.org/licenses/GPL/2.0/"/>
        <dc:subject>
          <rdf:Bag>
            <rdf:li>stop</rdf:li>
            <rdf:li>halt</rdf:li>
          </rdf:Bag>
        </dc:subject>
      </cc:Work>
      <cc:License rdf:about="http://creativecommons.org/licenses/GPL/2.0/">
        <cc:permits rdf:resource="http://web.resource.org/cc/Reproduction"/>
        <cc:permits rdf:resource="http://web.resource.org/cc/Distribution"/>
        <cc:requires rdf:resource="http://web.resource.org/cc/Notice"/>
        <cc:permits rdf:resource="http://web.resource.org/cc/DerivativeWorks"/>
        <cc:requires rdf:resource="http://web.resource.org/cc/ShareAlike"/>
        <cc:requires rdf:resource="http://web.resource.org/cc/SourceCode"/>
      </cc:License>
    </rdf:RDF>
  </metadata>
  <g id="layer1" inkscape:label="Layer 1" inkscape:groupmode="layer">
    <g inkscape:label="Layer 1" id="g7001" transform="matrix(1.4566048,0,0,1.4455352,0.4112881,1.2324709)">
      <path transform="matrix(1.5155468,0,0,1.2299034,-8.1425489e-2,4.9987359)" d="M 19.79899 18.022524 A 9.0598059 3.0935922 0 1 1  1.6793785,18.022524 A 9.0598059 3.0935922 0 1 1  19.79899 18.022524 z" sodipodi:ry="3.0935922" sodipodi:rx="9.0598059" sodipodi:cy="18.022524" sodipodi:cx="10.739184" id="path5137" style="opacity:1;color:#000000;fill:url(#radialGradient5145);fill-opacity:1;fill-rule:nonzero;stroke:none;stroke-width:1;stroke-linecap:butt;stroke-linejoin:miter;marker:none;marker-start:none;marker-mid:none;marker-end:none;stroke-miterlimit:4;stroke-dasharray:none;stroke-dashoffset:0;stroke-opacity:1;visibility:visible;display:inline;overflow:visible" sodipodi:type="arc"/>
      <path transform="matrix(1.4472753,0,0,1.4583582,1.7215589,1.7135444)" d="M 19.25 9.625 A 9.25 9.25 0 1 1  0.75,9.625 A 9.25 9.25 0 1 1  19.25 9.625 z" sodipodi:ry="9.25" sodipodi:rx="9.25" sodipodi:cy="9.625" sodipodi:cx="10" id="path4262" style="opacity:1;color:#000000;fill:url(#radialGradient5177);fill-opacity:1;fill-rule:nonzero;stroke:#a40000;stroke-width:0.47435912;stroke-linecap:butt;stroke-linejoin:miter;marker:none;marker-start:none;marker-mid:none;marker-end:none;stroke-miterlimit:4;stroke-dasharray:none;stroke-dashoffset:0;stroke-opacity:1;visibility:visible;display:inline;overflow:visible" sodipodi:type="arc"/>
      <path sodipodi:type="arc" style="opacity:0.35393258;color:#000000;fill:none;fill-opacity:1;fill-rule:nonzero;stroke:url(#radialGradient5157);stroke-width:0.49999994;stroke-linecap:butt;stroke-linejoin:miter;marker:none;marker-start:none;marker-mid:none;marker-end:none;stroke-miterlimit:4;stroke-dasharray:none;stroke-dashoffset:0;stroke-opacity:1;visibility:visible;display:inline;overflow:visible" id="path5149" sodipodi:cx="10" sodipodi:cy="9.625" sodipodi:rx="9.25" sodipodi:ry="9.25" d="M 19.25 9.625 A 9.25 9.25 0 1 1  0.75,9.625 A 9.25 9.25 0 1 1  19.25 9.625 z" transform="matrix(1.373056,0,0,1.3835706,2.4637512,2.4333749)"/>
      <path sodipodi:nodetypes="cc" id="path5159" d="M 11.045351,10.561853 L 21.343271,20.938632" style="opacity:1;color:#000000;fill:none;fill-opacity:1;fill-rule:nonzero;stroke:#ffffff;stroke-width:2.06745481;stroke-linecap:round;stroke-linejoin:round;marker:none;marker-start:none;marker-mid:none;marker-end:none;stroke-miterlimit:4;stroke-dasharray:none;stroke-dashoffset:0;stroke-opacity:1;visibility:visible;display:inline;overflow:visible"/>
      <path style="opacity:1;color:#000000;fill:none;fill-opacity:1;fill-rule:nonzero;stroke:#ffffff;stroke-width:2.06745505;stroke-linecap:round;stroke-linejoin:round;marker:none;marker-start:none;marker-mid:none;marker-end:none;stroke-miterlimit:4;stroke-dasharray:none;stroke-dashoffset:0;stroke-opacity:1;visibility:visible;display:inline;overflow:visible" d="M 21.343273,10.526816 L 11.015248,20.938631" id="path5161" sodipodi:nodetypes="cc"/>
    </g>
  </g>
</svg>