<?xml version="1.0" encoding="UTF-8" standalone="no"?>
<!-- Created with Inkscape (http://www.inkscape.org/) -->
<svg xmlns:dc="http://purl.org/dc/elements/1.1/" xmlns:cc="http://web.resource.org/cc/" xmlns:rdf="http://www.w3.org/1999/02/22-rdf-syntax-ns#" xmlns:svg="http://www.w3.org/2000/svg" xmlns="http://www.w3.org/2000/svg" xmlns:xlink="http://www.w3.org/1999/xlink" xmlns:sodipodi="http://sodipodi.sourceforge.net/DTD/sodipodi-0.dtd" xmlns:inkscape="http://www.inkscape.org/namespaces/inkscape" width="48" height="48" id="svg2" sodipodi:version="0.32" inkscape:version="0.45" version="1.0" sodipodi:docbase="/home/dobey/Projects/gnome-icon-theme/scalable/emotes" sodipodi:docname="face-plain.svg" inkscape:export-filename="/home/lapo/Desktop/smileys.png" inkscape:export-xdpi="90" inkscape:export-ydpi="90" inkscape:output_extension="org.inkscape.output.svg.inkscape">
  <defs id="defs4">
    <linearGradient inkscape:collect="always" id="linearGradient8431">
      <stop style="stop-color:#ffffff;stop-opacity:1;" offset="0" id="stop8433"/>
      <stop style="stop-color:#ffffff;stop-opacity:0;" offset="1" id="stop8435"/>
    </linearGradient>
    <linearGradient inkscape:collect="always" id="linearGradient7824">
      <stop style="stop-color:#000000;stop-opacity:1;" offset="0" id="stop7826"/>
      <stop style="stop-color:#000000;stop-opacity:0;" offset="1" id="stop7828"/>
    </linearGradient>
    <linearGradient inkscape:collect="always" id="linearGradient7810">
      <stop style="stop-color:#ffffff;stop-opacity:1;" offset="0" id="stop7812"/>
      <stop style="stop-color:#ffffff;stop-opacity:0;" offset="1" id="stop7814"/>
    </linearGradient>
    <linearGradient id="linearGradient7802" inkscape:collect="always">
      <stop id="stop7804" offset="0" style="stop-color:#2e3436;stop-opacity:1"/>
      <stop id="stop7806" offset="1" style="stop-color:#000000;stop-opacity:1"/>
    </linearGradient>
    <linearGradient inkscape:collect="always" id="linearGradient7776">
      <stop style="stop-color:#2e3436;stop-opacity:1" offset="0" id="stop7778"/>
      <stop style="stop-color:#000000;stop-opacity:1" offset="1" id="stop7780"/>
    </linearGradient>
    <linearGradient id="linearGradient3752">
      <stop id="stop3754" offset="0" style="stop-color:white;stop-opacity:1"/>
      <stop style="stop-color:#fce94f;stop-opacity:1;" offset="0.80000001" id="stop3756"/>
      <stop id="stop3758" offset="1" style="stop-color:#edd400;stop-opacity:1"/>
    </linearGradient>
    <linearGradient inkscape:collect="always" id="linearGradient3734">
      <stop style="stop-color:black;stop-opacity:1;" offset="0" id="stop3736"/>
      <stop style="stop-color:black;stop-opacity:0;" offset="1" id="stop3738"/>
    </linearGradient>
    <linearGradient id="linearGradient3712">
      <stop id="stop3714" offset="0" style="stop-color:white;stop-opacity:1;"/>
      <stop id="stop3716" offset="1" style="stop-color:white;stop-opacity:0.50570345"/>
    </linearGradient>
    <linearGradient inkscape:collect="always" id="linearGradient3704">
      <stop style="stop-color:white;stop-opacity:1;" offset="0" id="stop3706"/>
      <stop style="stop-color:white;stop-opacity:0;" offset="1" id="stop3708"/>
    </linearGradient>
    <radialGradient inkscape:collect="always" xlink:href="#linearGradient3734" id="radialGradient14470" gradientUnits="userSpaceOnUse" cx="12.046875" cy="10.046875" fx="12.046875" fy="10.046875" r="9.546875"/>
    <radialGradient inkscape:collect="always" xlink:href="#linearGradient3752" id="radialGradient14472" gradientUnits="userSpaceOnUse" gradientTransform="matrix(1.200799,0,0,1.200799,-1.921023,-1.565398)" cx="9.3747082" cy="7.8025141" fx="9.3747082" fy="7.8025141" r="10.049342"/>
    <linearGradient inkscape:collect="always" xlink:href="#linearGradient8431" id="linearGradient14474" gradientUnits="userSpaceOnUse" x1="18.825819" y1="-140.43388" x2="19.23638" y2="-134.38734"/>
    <radialGradient inkscape:collect="always" xlink:href="#linearGradient3712" id="radialGradient14476" gradientUnits="userSpaceOnUse" gradientTransform="matrix(1.242401,0,0,1.242401,-1.281477,-0.839422)" cx="5.3851099" cy="3.2659137" fx="5.3851099" fy="3.2659137" r="10.108456"/>
    <radialGradient inkscape:collect="always" xlink:href="#linearGradient3704" id="radialGradient14478" gradientUnits="userSpaceOnUse" gradientTransform="matrix(1.172092,0,0,0.779118,114.2479,84.6887)" cx="-79.065781" cy="66.5" fx="-79.065781" fy="66.5" r="11.89852"/>
    <radialGradient inkscape:collect="always" xlink:href="#linearGradient7824" id="radialGradient14480" gradientUnits="userSpaceOnUse" gradientTransform="matrix(1,0,0,1.3203883,0,42.131068)" cx="29.46875" cy="-131.5" fx="29.46875" fy="-131.5" r="3.21875"/>
    <radialGradient inkscape:collect="always" xlink:href="#linearGradient7824" id="radialGradient14482" gradientUnits="userSpaceOnUse" gradientTransform="matrix(1,0,0,1.3203883,0,42.131068)" cx="29.46875" cy="-131.5" fx="29.46875" fy="-131.5" r="3.21875"/>
    <radialGradient inkscape:collect="always" xlink:href="#linearGradient7802" id="radialGradient14484" gradientUnits="userSpaceOnUse" gradientTransform="matrix(1.6369211,0,0,1.625836,-18.114998,82.98933)" cx="28.221428" cy="-133.18883" fx="28.221428" fy="-133.18883" r="3.21875"/>
    <radialGradient inkscape:collect="always" xlink:href="#linearGradient7776" id="radialGradient14486" gradientUnits="userSpaceOnUse" gradientTransform="matrix(1.6369211,0,0,1.625836,-18.114998,82.98933)" cx="28.221428" cy="-133.18883" fx="28.221428" fy="-133.18883" r="3.21875"/>
    <linearGradient inkscape:collect="always" xlink:href="#linearGradient7810" id="linearGradient14488" gradientUnits="userSpaceOnUse" x1="28.621698" y1="-135.65616" x2="30.315804" y2="-127.34384"/>
    <linearGradient inkscape:collect="always" xlink:href="#linearGradient7810" id="linearGradient14490" gradientUnits="userSpaceOnUse" x1="28.621698" y1="-135.65616" x2="30.315804" y2="-127.34384"/>
  </defs>
  <sodipodi:namedview id="base" pagecolor="#ffffff" bordercolor="#666666" borderopacity="1.0" inkscape:pageopacity="0" inkscape:pageshadow="2" inkscape:zoom="1" inkscape:cx="-3.3874887" inkscape:cy="-97.187207" inkscape:document-units="px" inkscape:current-layer="layer1" width="48px" height="48px" inkscape:showpageshadow="false" showgrid="false" gridempspacing="2" gridspacingx="0.5px" gridspacingy="0.5px" borderlayer="false" showborder="true" showguides="false" inkscape:guide-bbox="true" inkscape:window-width="1112" inkscape:window-height="940" inkscape:window-x="132" inkscape:window-y="55" inkscape:grid-points="true" inkscape:grid-bbox="true" inkscape:object-points="false" inkscape:object-paths="false">
    <sodipodi:guide orientation="vertical" position="24" id="guide8441"/>
    <sodipodi:guide orientation="horizontal" position="175" id="guide8443"/>
    <sodipodi:guide orientation="horizontal" position="167.00978" id="guide7776"/>
    <sodipodi:guide orientation="vertical" position="71.020038" id="guide7778"/>
  </sodipodi:namedview>
  <metadata id="metadata7">
    <rdf:RDF>
      <cc:Work rdf:about="">
        <dc:format>image/svg+xml</dc:format>
        <dc:type rdf:resource="http://purl.org/dc/dcmitype/StillImage"/>
        <dc:title>Plain</dc:title>
        <dc:creator>
          <cc:Agent>
            <dc:title>Lapo Calamandrei</dc:title>
          </cc:Agent>
        </dc:creator>
        <cc:license rdf:resource="http://creativecommons.org/licenses/GPL/2.0/"/>
        <dc:subject>
          <rdf:Bag>
            <rdf:li>emoticon</rdf:li>
            <rdf:li>emote</rdf:li>
            <rdf:li>smiley</rdf:li>
            <rdf:li>smile</rdf:li>
            <rdf:li>plain</rdf:li>
          </rdf:Bag>
        </dc:subject>
      </cc:Work>
      <cc:License rdf:about="http://creativecommons.org/licenses/GPL/2.0/">
        <cc:permits rdf:resource="http://web.resource.org/cc/Reproduction"/>
        <cc:permits rdf:resource="http://web.resource.org/cc/Distribution"/>
        <cc:requires rdf:resource="http://web.resource.org/cc/Notice"/>
        <cc:permits rdf:resource="http://web.resource.org/cc/DerivativeWorks"/>
        <cc:requires rdf:resource="http://web.resource.org/cc/ShareAlike"/>
        <cc:requires rdf:resource="http://web.resource.org/cc/SourceCode"/>
      </cc:License>
    </rdf:RDF>
  </metadata>
  <g inkscape:label="Livello 1" inkscape:groupmode="layer" id="layer1" style="display:inline">
    <g id="g13000" transform="translate(0,-100)">
      <path inkscape:export-ydpi="90" inkscape:export-xdpi="90" inkscape:export-filename="/home/lapo/Desktop/something-along-the-lines.png" transform="matrix(2.4091653,0,0,1.2045827,-5.022913,123.39771)" d="M 21.59375 10.046875 A 9.546875 9.546875 0 1 1  2.5,10.046875 A 9.546875 9.546875 0 1 1  21.59375 10.046875 z" sodipodi:ry="9.546875" sodipodi:rx="9.546875" sodipodi:cy="10.046875" sodipodi:cx="12.046875" id="path7946" style="opacity:0.4;fill:url(#radialGradient14470);fill-opacity:1;stroke:none;stroke-width:0.46570092;stroke-linecap:round;stroke-linejoin:miter;stroke-miterlimit:4;stroke-dasharray:none;stroke-dashoffset:0;stroke-opacity:1;display:inline" sodipodi:type="arc"/>
      <path inkscape:export-ydpi="90" inkscape:export-xdpi="90" inkscape:export-filename="/home/lapo/Desktop/something-along-the-lines.png" transform="matrix(2.1473,0,0,2.1473,-1.8687,101.4268)" d="M 21.59375 10.046875 A 9.546875 9.546875 0 1 1  2.5,10.046875 A 9.546875 9.546875 0 1 1  21.59375 10.046875 z" sodipodi:ry="9.546875" sodipodi:rx="9.546875" sodipodi:cy="10.046875" sodipodi:cx="12.046875" id="path2560" style="fill:url(#radialGradient14472);fill-opacity:1;stroke:#c4a000;stroke-width:0.46570092;stroke-linecap:round;stroke-linejoin:miter;stroke-miterlimit:4;stroke-dasharray:none;stroke-dashoffset:0;stroke-opacity:1;display:inline" sodipodi:type="arc"/>
      <path inkscape:transform-center-x="1.9734894" inkscape:transform-center-y="-7.3651901" transform="matrix(2.2078305,-0.5915864,0.4553048,1.6992208,40.743051,358.37364)" d="M 25.6875 -135.96875 A 6.125 5.96875 0 1 1  13.4375,-135.96875 A 6.125 5.96875 0 1 1  25.6875 -135.96875 z" sodipodi:ry="5.96875" sodipodi:rx="6.125" sodipodi:cy="-135.96875" sodipodi:cx="19.5625" id="path8723" style="opacity:1;fill:url(#linearGradient14474);fill-opacity:1;fill-rule:evenodd;stroke:none;stroke-width:1;stroke-linecap:round;stroke-linejoin:miter;stroke-miterlimit:4;stroke-dasharray:none;stroke-dashoffset:0.69999992;stroke-opacity:1;display:inline" sodipodi:type="arc"/>
      <path inkscape:export-ydpi="90" inkscape:export-xdpi="90" inkscape:export-filename="/home/lapo/Desktop/something-along-the-lines.png" transform="matrix(2.042553,0,0,2.042553,-0.6064,102.4787)" d="M 21.59375 10.046875 A 9.546875 9.546875 0 1 1  2.5,10.046875 A 9.546875 9.546875 0 1 1  21.59375 10.046875 z" sodipodi:ry="9.546875" sodipodi:rx="9.546875" sodipodi:cy="10.046875" sodipodi:cx="12.046875" id="path2562" style="opacity:1;fill:none;fill-opacity:1;stroke:url(#radialGradient14476);stroke-width:0.48958337;stroke-linecap:round;stroke-linejoin:miter;stroke-miterlimit:4;stroke-dasharray:none;stroke-dashoffset:0;stroke-opacity:1;display:inline" sodipodi:type="arc"/>
      <path inkscape:export-ydpi="90" inkscape:export-xdpi="90" inkscape:export-filename="/home/lapo/Desktop/something-along-the-lines.png" id="path2564" d="M 15.499998,135.50002 L 32.475334,135.50002" style="fill:none;fill-rule:evenodd;stroke:#c4a000;stroke-width:1.00000012px;stroke-linecap:round;stroke-linejoin:miter;stroke-opacity:1;display:inline"/>
      <path inkscape:export-ydpi="90" inkscape:export-xdpi="90" inkscape:export-filename="/home/lapo/Desktop/something-along-the-lines.png" id="path2566" d="M 15.557761,136.5 L 32.435777,136.5" style="opacity:0.8;fill:none;fill-rule:evenodd;stroke:url(#radialGradient14478);stroke-width:0.99999952px;stroke-linecap:round;stroke-linejoin:miter;stroke-opacity:1;display:inline"/>
      <g transform="translate(60,149)" id="g7934" style="display:inline">
        <path sodipodi:type="arc" style="opacity:0.7;fill:url(#radialGradient14480);fill-opacity:1;fill-rule:evenodd;stroke:none;stroke-width:1;stroke-linecap:round;stroke-linejoin:miter;stroke-miterlimit:4;stroke-dasharray:none;stroke-dashoffset:0.69999992;stroke-opacity:1;display:inline" id="path7936" sodipodi:cx="29.46875" sodipodi:cy="-131.5" sodipodi:rx="3.21875" sodipodi:ry="4.25" d="M 32.6875 -131.5 A 3.21875 4.25 0 1 1  26.25,-131.5 A 3.21875 4.25 0 1 1  32.6875 -131.5 z" transform="matrix(0.9320389,0,0,0.9999999,-58.96602,101.24999)"/>
        <path sodipodi:type="arc" style="opacity:0.7;fill:url(#radialGradient14482);fill-opacity:1;fill-rule:evenodd;stroke:none;stroke-width:1;stroke-linecap:round;stroke-linejoin:miter;stroke-miterlimit:4;stroke-dasharray:none;stroke-dashoffset:0.69999992;stroke-opacity:1;display:inline" id="path7938" sodipodi:cx="29.46875" sodipodi:cy="-131.5" sodipodi:rx="3.21875" sodipodi:ry="4.25" d="M 32.6875 -131.5 A 3.21875 4.25 0 1 1  26.25,-131.5 A 3.21875 4.25 0 1 1  32.6875 -131.5 z" transform="matrix(0.9320389,0,0,0.9999999,-67.96602,101.24999)"/>
        <path sodipodi:type="arc" style="fill:url(#radialGradient14484);fill-opacity:1;fill-rule:evenodd;stroke:none;stroke-width:1;stroke-linecap:round;stroke-linejoin:miter;stroke-miterlimit:4;stroke-dasharray:none;stroke-dashoffset:0.69999992;stroke-opacity:1;display:inline" id="path7941" sodipodi:cx="29.46875" sodipodi:cy="-131.5" sodipodi:rx="3.21875" sodipodi:ry="4.25" d="M 32.6875 -131.5 A 3.21875 4.25 0 1 1  26.25,-131.5 A 3.21875 4.25 0 1 1  32.6875 -131.5 z" transform="matrix(0.7766992,0,0,0.9411763,-63.388354,92.76468)"/>
        <path sodipodi:type="arc" style="fill:url(#radialGradient14486);fill-opacity:1;fill-rule:evenodd;stroke:none;stroke-width:1;stroke-linecap:round;stroke-linejoin:miter;stroke-miterlimit:4;stroke-dasharray:none;stroke-dashoffset:0.69999992;stroke-opacity:1;display:inline" id="path7943" sodipodi:cx="29.46875" sodipodi:cy="-131.5" sodipodi:rx="3.21875" sodipodi:ry="4.25" d="M 32.6875 -131.5 A 3.21875 4.25 0 1 1  26.25,-131.5 A 3.21875 4.25 0 1 1  32.6875 -131.5 z" transform="matrix(0.7766992,0,0,0.9411763,-54.388354,92.76468)"/>
        <path sodipodi:type="arc" style="opacity:0.5;fill:url(#linearGradient14488);fill-opacity:1;fill-rule:evenodd;stroke:none;stroke-width:1;stroke-linecap:round;stroke-linejoin:miter;stroke-miterlimit:4;stroke-dasharray:none;stroke-dashoffset:0.69999992;stroke-opacity:1;display:inline" id="path7945" sodipodi:cx="29.46875" sodipodi:cy="-131.5" sodipodi:rx="3.21875" sodipodi:ry="4.25" d="M 32.6875 -131.5 A 3.21875 4.25 0 1 1  26.25,-131.5 A 3.21875 4.25 0 1 1  32.6875 -131.5 z" transform="matrix(0.2408327,6.0944233e-2,-4.9083318e-2,0.4390867,-54.729843,23.770512)"/>
        <path sodipodi:type="arc" style="opacity:0.5;fill:url(#linearGradient14490);fill-opacity:1;fill-rule:evenodd;stroke:none;stroke-width:1;stroke-linecap:round;stroke-linejoin:miter;stroke-miterlimit:4;stroke-dasharray:none;stroke-dashoffset:0.69999992;stroke-opacity:1;display:inline" id="path7947" sodipodi:cx="29.46875" sodipodi:cy="-131.5" sodipodi:rx="3.21875" sodipodi:ry="4.25" d="M 32.6875 -131.5 A 3.21875 4.25 0 1 1  26.25,-131.5 A 3.21875 4.25 0 1 1  32.6875 -131.5 z" transform="matrix(0.2408327,6.0944233e-2,-4.9083318e-2,0.4390867,-45.729843,23.770512)"/>
      </g>
    </g>
    <g id="g7909" transform="translate(-106,-6)"/>
  </g>
</svg>